Курсова робота по економетриці на тему: Дослідження впливу різних факторів на рівень людського розвитку в різних країнах
…
План

Вступ

Побудова МЛР за МНК. Пошук найкращої МЛР. Перевірка моделі на нульову гіпотезу та наявність статистично значущого взаємозв’язку між змінними;

Перевірка моделі на явність явища гетероскедастичності

Використання моделі для виведення результатів за допомогою симплекс-методу

Пояснення змінних у датасеті

read_file

# A tibble: 191 × 8
   Country  Human Development In…¹ Life expectancy at b…² Expected years of sc…³
   <chr>                     <dbl>                  <dbl>                  <dbl>
 1 Switzer…                  0.962                   84.0                   16.5
 2 Norway                    0.961                   83.2                   18.2
 3 Iceland                   0.959                   82.7                   19.2
 4 Hong Ko…                  0.952                   85.5                   17.3
 5 Austral…                  0.951                   84.5                   21.1
 6 Denmark                   0.948                   81.4                   18.7
 7 Sweden                    0.947                   83.0                   19.4
 8 Ireland                   0.945                   82.0                   18.9
 9 Germany                   0.942                   80.6                   17.0
10 Netherl…                  0.941                   81.7                   18.7
# ℹ 181 more rows
# ℹ abbreviated names: ¹​`Human Development Index (HDI)`,
#   ²​`Life expectancy at birth`, ³​`Expected years of schooling`
# ℹ 4 more variables: `Mean years of schooling` <dbl>,
#   `Gross national income (GNI) per capita` <dbl>,
#   `GNI per capita rank minus HDI rank` <dbl>, `HDI rank` <dbl>
…
Підготовка вибірки

Для початку потрібно визначити залежну та незалежну змінні, оскільки залежна змінна— пояснювана або прогнозована змінна, то можемо легко сказати, що HDI(Human Development Index)— залежна, а всі інші— незалежні. Тепер потрібно сформувати підвибірку з рівня людського розвитку та всіх інших незалежних змінних за допомогою функції slice_sample(n = …), яка потрібна для отримання зрізу даних випадкової вибірки. Функція select(!с(х, у) використовується для відбору певних даних з стовпців датафрейму, якіне потрібні для дослідження(через їх тип даних)

set.seed(2023)
MLR <- read_file %>% 
  select(!c(Country)) %>% 
  slice_sample(n = 100)
MLR

# A tibble: 100 × 7
   `Human Development Index (HDI)` Life expectancy at b…¹ Expected years of sc…²
                             <dbl>                  <dbl>                  <dbl>
 1                           0.693                   61.1                  12.3 
 2                           0.498                   65.0                   9.65
 3                           0.717                   70.3                  13.0 
 4                           0.911                   78.7                  15.7 
 5                           0.853                   80.9                  12.3 
 6                           0.731                   73.8                  15.4 
 7                           0.896                   81.2                  15.6 
 8                           0.832                   76.3                  15.1 
 9                           0.675                   70.7                  12.7 
10                           0.632                   63.8                  12.0 
# ℹ 90 more rows
# ℹ abbreviated names: ¹​`Life expectancy at birth`,
#   ²​`Expected years of schooling`
# ℹ 4 more variables: `Mean years of schooling` <dbl>,
#   `Gross national income (GNI) per capita` <dbl>,
#   `GNI per capita rank minus HDI rank` <dbl>, `HDI rank` <dbl>
…
